^C:\USERS\BUBBL\DOCUMENTS\ADVENTOFCODE\ADVENTOFCODE\ADVENTOFCODE\DEBUG\ADVENTOFCODE.OBJ|C:\USERS\BUBBL\DOCUMENTS\ADVENTOFCODE\ADVENTOFCODE\ADVENTOFCODE\DEBUG\ADVENTTOOLS.OBJ|C:\USERS\BUBBL\DOCUMENTS\ADVENTOFCODE\ADVENTOFCODE\ADVENTOFCODE\DEBUG\PCH.OBJ
C:\USERS\BUBBL\DOCUMENTS\ADVENTOFCODE\ADVENTOFCODE\DEBUG\ADVENTOFCODE.EXE
C:\USERS\BUBBL\DOCUMENTS\ADVENTOFCODE\ADVENTOFCODE\DEBUG\ADVENTOFCODE.ILK
C:\USERS\BUBBL\DOCUMENTS\ADVENTOFCODE\ADVENTOFCODE\DEBUG\ADVENTOFCODE.PDB
